{
  "project_info": {
    "project_number": "996080715771",
    "firebase_url": "https://carryit-2a20a.firebaseio.com",
    "project_id": "carryit-2a20a",
    "storage_bucket": "carryit-2a20a.appspot.com"
  },
  "client": [
    {
      "client_info": {
        "mobilesdk_app_id": "1:996080715771:android:57cfd1b049c82c34",
        "android_client_info": {
          "package_name": "project.carryit"
        }
      },
      "oauth_client": [
        {
          "client_id": "996080715771-ddb91brho7pkrj3270kh9for0vlk46rn.apps.googleusercontent.com",
          "client_type": 1,
          "android_info": {
            "package_name": "project.carryit",
            "certificate_hash": "44e2ce0715f1d886b94923910ce3edf97a4f58f8"
          }
        },
        {
          "client_id": "996080715771-mskiouaq4a026gmuk38ri2fmkf0qtelk.apps.googleusercontent.com",
          "client_type": 3
        }
      ],
      "api_key": [
        {
          "current_key": "AIzaSyBH2rz7OhPQJbkYXPwBhhuGsNADOKSHDHc"
        }
      ],
      "services": {
        "appinvite_service": {
          "other_platform_oauth_client": [
            {
              "client_id": "996080715771-mskiouaq4a026gmuk38ri2fmkf0qtelk.apps.googleusercontent.com",
              "client_type": 3
            }
          ]
        }
      }
    }
  ],
  "configuration_version": "1"
}